<svg xmlns="http://www.w3.org/2000/svg" version="1.1" width="3300" height="2000"><g id="Notes"><style>
    text {
      font-family: monospace;
      text-anchor: middle;
    }
    text.emphasis {
      font-weight:bold;
    }
    text.lanchor {
      text-anchor: start;
    }
  </style><rect height="2200" id="artboard" fill="white" width="3300" x="0" y="0"/><line id="" style="fill:none;stroke:black;stroke-width:0.5;" x1="263" x2="3036" y1="292" y2="292"/><text class="lanchor emphasis" transform="matrix(1 0 0 1 263 322)">Weight/Scale Variations</text><text transform="matrix(1 0 0 1 559.711 322)">Ultralight</text><text transform="matrix(1 0 0 1 856.422 322)">Thin</text><text transform="matrix(1 0 0 1 1153.13 322)">Light</text><text transform="matrix(1 0 0 1 1449.84 322)">Regular</text><text transform="matrix(1 0 0 1 1746.56 322)">Medium</text><text transform="matrix(1 0 0 1 2043.27 322)">Semibold</text><text transform="matrix(1 0 0 1 2339.98 322)">Bold</text><text transform="matrix(1 0 0 1 2636.69 322)">Heavy</text><text transform="matrix(1 0 0 1 2933.4 322)">Black</text><text id="template-version" style="text-anchor: end;" transform="matrix(1 0 0 1 3036 1933)">Template v.1.0</text><text class="lanchor" transform="matrix(1 0 0 1 263 726)">Small</text><text class="lanchor" transform="matrix(1 0 0 1 263 1156)">Medium</text><text class="lanchor" transform="matrix(1 0 0 1 263 1586)">Large</text></g><g id="Guides"><g id="H-reference" style="fill:#27AAE1;stroke:none;" transform="matrix(1 0 0 1 339 696)"><path d="M 54.9316 0 L 57.666 0 L 30.5664 -70.459 L 28.0762 -70.459 L 0.976562 0 L 3.66211 0 L 12.9395 -24.4629 L 45.7031 -24.4629 Z M 29.1992 -67.0898 L 29.4434 -67.0898 L 44.8242 -26.709 L 13.8184 -26.709 Z"/></g><line id="Baseline-S" style="fill:none;stroke:#27AAE1;opacity:1;stroke-width:0.577;" x1="263" x2="3036" y1="696" y2="696"/><line id="Capline-S" style="fill:none;stroke:#27AAE1;opacity:1;stroke-width:0.577;" x1="263" x2="3036" y1="625.541" y2="625.541"/><g id="H-reference" style="fill:#27AAE1;stroke:none;" transform="matrix(1 0 0 1 339 1126)"><path d="M 54.9316 0 L 57.666 0 L 30.5664 -70.459 L 28.0762 -70.459 L 0.976562 0 L 3.66211 0 L 12.9395 -24.4629 L 45.7031 -24.4629 Z M 29.1992 -67.0898 L 29.4434 -67.0898 L 44.8242 -26.709 L 13.8184 -26.709 Z"/></g><line id="Baseline-M" style="fill:none;stroke:#27AAE1;opacity:1;stroke-width:0.577;" x1="263" x2="3036" y1="1126" y2="1126"/><line id="Capline-M" style="fill:none;stroke:#27AAE1;opacity:1;stroke-width:0.577;" x1="263" x2="3036" y1="1055.54" y2="1055.54"/><g id="H-reference" style="fill:#27AAE1;stroke:none;" transform="matrix(1 0 0 1 339 1556)"><path d="M 54.9316 0 L 57.666 0 L 30.5664 -70.459 L 28.0762 -70.459 L 0.976562 0 L 3.66211 0 L 12.9395 -24.4629 L 45.7031 -24.4629 Z M 29.1992 -67.0898 L 29.4434 -67.0898 L 44.8242 -26.709 L 13.8184 -26.709 Z"/></g><line id="Baseline-L" style="fill:none;stroke:#27AAE1;opacity:1;stroke-width:0.577;" x1="263" x2="3036" y1="1556" y2="1556"/><line id="Capline-L" style="fill:none;stroke:#27AAE1;opacity:1;stroke-width:0.577;" x1="263" x2="3036" y1="1485.54" y2="1485.54"/><rect height="119.336" id="left-margin" style="fill:darkred;stroke:none;opacity:0.4;" width="12.4512" x="1394.06" y="1030.79"/><rect height="119.336" id="right-margin" style="fill:darkgreen;stroke:none;opacity:0.4;" width="12.4512" x="1502.5112" y="1030.79"/><rect x="1406.5112" y="1045" width="96" height="96" fill="none" stroke="blue" stroke-dasharray="5"/><rect x="1394.06" y="1030.79" width="120.9024" height="119.336" fill="none" stroke="blue"/></g><g id="Symbols"><g id="Bold-L" transform="matrix(1 0 0 1 2266 1556)"><path d="M40.79625 26.85125000000002 Q34.5075 26.85125000000002 29.992500000000003 22.416875000000005 Q25.477500000000003 17.982500000000016 25.477500000000003 11.693749999999994 V-77.47749999999999 H16.125 V-92.63499999999999 H53.37375 V-100.375 H101.265 V-92.63499999999999 H138.675 V-77.47749999999999 H129.32250000000002 V11.693749999999994 Q129.32250000000002 17.982500000000016 124.80750000000002 22.416875000000005 Q120.29249999999999 26.85125000000002 114.00375000000001 26.85125000000002 H40.79625 Z M114.00375000000001 -77.47749999999999 H40.79625 V11.693749999999994 Q40.79625 11.693749999999994 40.79625 11.693749999999994 Q40.79625 11.693749999999994 40.79625 11.693749999999994 H114.00375000000001 Q114.00375000000001 11.693749999999994 114.00375000000001 11.693749999999994 Q114.00375000000001 11.693749999999994 114.00375000000001 11.693749999999994 V-77.47749999999999 Z M57.082499999999996 -0.883749999999992 H69.49875 V-65.2225 H57.082499999999996 V-0.883749999999992 Z M85.30125 -0.883749999999992 H97.87875000000001 V-65.2225 H85.30125 V-0.883749999999992 Z M40.79625 -77.47749999999999 V11.693749999999994 Q40.79625 11.693749999999994 40.79625 11.693749999999994 Q40.79625 11.693749999999994 40.79625 11.693749999999994 Q40.79625 11.693749999999994 40.79625 11.693749999999994 Q40.79625 11.693749999999994 40.79625 11.693749999999994 V-77.47749999999999 Z"/></g><g id="Semibold-L" transform="matrix(1 0 0 1 1970.27 1556)"><path d="M41.28 25.077500000000015 Q36.12 25.077500000000015 32.330625000000005 21.288125000000008 Q28.541249999999998 17.49875 28.541249999999998 12.338750000000005 V-77.96124999999999 H20.3175 V-90.86125 H54.5025 V-97.31125 H100.13625 V-90.86125 H134.48250000000002 V-77.96124999999999 H126.25874999999999 V12.338750000000005 Q126.25874999999999 17.49875 122.46937500000001 21.288125000000008 Q118.67999999999999 25.077500000000015 113.52000000000001 25.077500000000015 H41.28 Z M113.52000000000001 -77.96124999999999 H41.28 V12.338750000000005 Q41.28 12.338750000000005 41.28 12.338750000000005 Q41.28 12.338750000000005 41.28 12.338750000000005 H113.52000000000001 Q113.52000000000001 12.338750000000005 113.52000000000001 12.338750000000005 Q113.52000000000001 12.338750000000005 113.52000000000001 12.338750000000005 V-77.96124999999999 Z M58.050000000000004 -0.883749999999992 H69.17625 V-65.2225 H58.050000000000004 V-0.883749999999992 Z M85.62375 -0.883749999999992 H96.91125000000001 V-65.2225 H85.62375 V-0.883749999999992 Z M41.28 -77.96124999999999 V12.338750000000005 Q41.28 12.338750000000005 41.28 12.338750000000005 Q41.28 12.338750000000005 41.28 12.338750000000005 Q41.28 12.338750000000005 41.28 12.338750000000005 Q41.28 12.338750000000005 41.28 12.338750000000005 V-77.96124999999999 Z"/></g><g id="Medium-L" transform="matrix(1 0 0 1 1674.31 1556)"><path d="M41.76375 23.787499999999994 Q37.24875 23.787499999999994 34.02375 20.481875000000002 Q30.798750000000002 17.17625000000001 30.798750000000002 12.822500000000005 V-78.445 H23.5425 V-89.41 H55.47 V-95.05375 H99.33 V-89.41 H131.25750000000002 V-78.445 H124.00125000000001 V12.822500000000005 Q124.00125000000001 17.17625000000001 120.77625000000002 20.481875000000002 Q117.55125000000001 23.787499999999994 113.03625 23.787499999999994 H41.76375 Z M113.03625 -78.445 H41.76375 V12.822500000000005 Q41.76375 12.822500000000005 41.76375 12.822500000000005 Q41.76375 12.822500000000005 41.76375 12.822500000000005 H113.03625 Q113.03625 12.822500000000005 113.03625 12.822500000000005 Q113.03625 12.822500000000005 113.03625 12.822500000000005 V-78.445 Z M58.695 -0.7224999999999824 H69.015 V-65.06125 H58.695 V-0.7224999999999824 Z M85.78500000000001 -0.7224999999999824 H96.105 V-65.06125 H85.78500000000001 V-0.7224999999999824 Z M41.76375 -78.445 V12.822500000000005 Q41.76375 12.822500000000005 41.76375 12.822500000000005 Q41.76375 12.822500000000005 41.76375 12.822500000000005 Q41.76375 12.822500000000005 41.76375 12.822500000000005 Q41.76375 12.822500000000005 41.76375 12.822500000000005 V-78.445 Z"/></g><g id="Regular-L" transform="matrix(1 0 0 1 1378.56 1556)"><path d="M42.08625000000001 22.82000000000002 Q38.21625 22.82000000000002 35.31375 19.917500000000018 Q32.41125 17.015000000000015 32.41125 13.14500000000001 V-78.76749999999998 H25.8 V-88.4425 H56.114999999999995 V-93.28 H98.685 V-88.4425 H129.0 V-78.76749999999998 H122.38875000000002 V13.14500000000001 Q122.38875000000002 17.015000000000015 119.48625 19.917500000000018 Q116.58375 22.82000000000002 112.71375000000002 22.82000000000002 H42.08625000000001 Z M112.71375000000002 -78.76749999999998 H42.08625000000001 V13.14500000000001 Q42.08625000000001 13.14500000000001 42.08625000000001 13.14500000000001 Q42.08625000000001 13.14500000000001 42.08625000000001 13.14500000000001 H112.71375000000002 Q112.71375000000002 13.14500000000001 112.71375000000002 13.14500000000001 Q112.71375000000002 13.14500000000001 112.71375000000002 13.14500000000001 V-78.76749999999998 Z M59.17875000000001 -0.7224999999999824 H68.85375 V-65.06125 H59.17875000000001 V-0.7224999999999824 Z M85.94624999999999 -0.7224999999999824 H95.62125 V-65.06125 H85.94624999999999 V-0.7224999999999824 Z M42.08625000000001 -78.76749999999998 V13.14500000000001 Q42.08625000000001 13.14500000000001 42.08625000000001 13.14500000000001 Q42.08625000000001 13.14500000000001 42.08625000000001 13.14500000000001 Q42.08625000000001 13.14500000000001 42.08625000000001 13.14500000000001 Q42.08625000000001 13.14500000000001 42.08625000000001 13.14500000000001 V-78.76749999999998 Z"/></g><g id="Light-L" transform="matrix(1 0 0 1 1082.77 1556)"><path d="M44.8275 19.595 Q41.11875 19.595 38.377500000000005 16.85374999999999 Q35.636250000000004 14.112499999999997 35.636250000000004 10.242500000000007 V-77.47749999999999 H29.025000000000002 V-84.73374999999999 H56.59875 V-89.24875 H98.20125 V-84.73374999999999 H125.775 V-77.47749999999999 H119.16375000000001 V10.242500000000007 Q119.16375000000001 14.112499999999997 116.42250000000001 16.85374999999999 Q113.68125 19.595 109.97250000000001 19.595 H44.8275 Z M111.90750000000001 -77.47749999999999 H42.892500000000005 V10.242500000000007 Q42.892500000000005 11.048750000000013 43.5375 11.693749999999994 Q44.1825 12.338750000000005 44.8275 12.338750000000005 H109.97250000000001 Q110.61749999999999 12.338750000000005 111.2625 11.693749999999994 Q111.90750000000001 11.048750000000013 111.90750000000001 10.242500000000007 V-77.47749999999999 Z M61.43625 -1.3674999999999926 H68.85375 V-63.9325 H61.43625 V-1.3674999999999926 Z M85.94624999999999 -1.3674999999999926 H93.36375 V-63.9325 H85.94624999999999 V-1.3674999999999926 Z M42.892500000000005 -77.47749999999999 V10.242500000000007 Q42.892500000000005 11.210000000000008 42.892500000000005 11.77437500000002 Q42.892500000000005 12.338750000000005 42.892500000000005 12.338750000000005 Q42.892500000000005 12.338750000000005 42.892500000000005 11.77437500000002 Q42.892500000000005 11.210000000000008 42.892500000000005 10.242500000000007 V-77.47749999999999 Z"/></g><g id="Thin-L" transform="matrix(1 0 0 1 787.282 1556)"><path d="M47.730000000000004 16.370000000000005 Q44.02125 16.370000000000005 41.360625 13.79000000000002 Q38.7 11.210000000000008 38.7 7.501250000000013 V-76.1875 H32.25 V-81.18625 H57.082499999999996 V-85.37875 H97.7175 V-81.18625 H122.55 V-76.1875 H116.10000000000001 V7.501250000000013 Q116.10000000000001 11.210000000000008 113.439375 13.79000000000002 Q110.77875 16.370000000000005 107.07000000000001 16.370000000000005 H47.730000000000004 Z M111.10125000000001 -76.1875 H43.698750000000004 V7.501250000000013 Q43.698750000000004 8.952500000000015 44.908125000000005 10.161875000000023 Q46.11750000000001 11.371250000000018 47.730000000000004 11.371250000000018 H107.07000000000001 Q108.68250000000002 11.371250000000018 109.89187500000001 10.161875000000023 Q111.10125000000001 8.952500000000015 111.10125000000001 7.501250000000013 V-76.1875 Z M63.69375 -2.012500000000003 H68.69250000000001 V-62.964999999999996 H63.69375 V-2.012500000000003 Z M86.1075 -2.012500000000003 H91.10625 V-62.964999999999996 H86.1075 V-2.012500000000003 Z M43.698750000000004 -76.1875 V7.501250000000013 Q43.698750000000004 9.11375000000001 43.698750000000004 10.242500000000007 Q43.698750000000004 11.371250000000018 43.698750000000004 11.371250000000018 Q43.698750000000004 11.371250000000018 43.698750000000004 10.242500000000007 Q43.698750000000004 9.11375000000001 43.698750000000004 7.501250000000013 V-76.1875 Z"/></g><g id="Ultralight-L" transform="matrix(1 0 0 1 491.205 1556)"><path d="M49.3425 14.435000000000002 Q45.63375 14.435000000000002 43.134375 11.935625000000002 Q40.635 9.436250000000015 40.635 5.7275000000000205 V-75.38125 H34.185 V-78.92875 H57.405 V-82.96 H97.395 V-78.92875 H120.615 V-75.38125 H114.16499999999999 V5.7275000000000205 Q114.16499999999999 9.436250000000015 111.665625 11.935625000000002 Q109.16625 14.435000000000002 105.45750000000001 14.435000000000002 H49.3425 Z M110.61749999999999 -75.38125 H44.1825 V5.7275000000000205 Q44.1825 7.662499999999994 45.795 9.275000000000006 Q47.4075 10.887500000000003 49.3425 10.887500000000003 H105.45750000000001 Q107.3925 10.887500000000003 109.005 9.275000000000006 Q110.61749999999999 7.662499999999994 110.61749999999999 5.7275000000000205 V-75.38125 Z M65.145 -2.3349999999999795 H68.69250000000001 V-62.31999999999999 H65.145 V-2.3349999999999795 Z M86.1075 -2.3349999999999795 H89.655 V-62.31999999999999 H86.1075 V-2.3349999999999795 Z M44.1825 -75.38125 V5.7275000000000205 Q44.1825 7.984999999999999 44.1825 9.436250000000015 Q44.1825 10.887500000000003 44.1825 10.887500000000003 Q44.1825 10.887500000000003 44.1825 9.436250000000015 Q44.1825 7.984999999999999 44.1825 5.7275000000000205 V-75.38125 Z"/></g><g id="Bold-M" transform="matrix(1 0 0 1 2281.8 1126)"><path d="M33.625 14.02000000000001 Q27.0 14.02000000000001 22.44 9.460000000000008 Q17.875 4.89500000000001 17.875 -1.7299999999999898 V-63.85499999999999 H10.0 V-79.60499999999999 H42.125 V-87.47999999999999 H77.625 V-79.60499999999999 H110.0 V-63.85499999999999 H102.125 V-1.7299999999999898 Q102.125 4.89500000000001 97.56500000000001 9.460000000000008 Q93.0 14.02000000000001 86.375 14.02000000000001 H33.625 Z M86.375 -63.85499999999999 H33.625 V-1.7299999999999898 Q33.625 -1.7299999999999898 33.625 -1.7299999999999898 Q33.625 -1.7299999999999898 33.625 -1.7299999999999898 H86.375 Q86.375 -1.7299999999999898 86.375 -1.7299999999999898 Q86.375 -1.7299999999999898 86.375 -1.7299999999999898 V-63.85499999999999 Z M42.75 -10.35499999999999 H55.625 V-55.35499999999999 H42.75 V-10.35499999999999 Z M64.375 -10.35499999999999 H77.25 V-55.35499999999999 H64.375 V-10.35499999999999 Z M33.625 -63.85499999999999 V-1.7299999999999898 Q33.625 -1.7299999999999898 33.625 -1.7299999999999898 Q33.625 -1.7299999999999898 33.625 -1.7299999999999898 Q33.625 -1.7299999999999898 33.625 -1.7299999999999898 Q33.625 -1.7299999999999898 33.625 -1.7299999999999898 V-63.85499999999999 Z"/></g><g id="Semibold-M" transform="matrix(1 0 0 1 1985.97 1126)"><path d="M34.25 12.14500000000001 Q28.625 12.14500000000001 24.815 8.330000000000013 Q21.0 4.52000000000001 21.0 -1.1049999999999898 V-64.47999999999999 H14.375 V-77.72999999999999 H43.375 V-84.35499999999999 H76.5 V-77.72999999999999 H105.625 V-64.47999999999999 H99.0 V-1.1049999999999898 Q99.0 4.52000000000001 95.19 8.330000000000013 Q91.375 12.14500000000001 85.75 12.14500000000001 H34.25 Z M85.75 -64.47999999999999 H34.25 V-1.1049999999999898 Q34.25 -1.1049999999999898 34.25 -1.1049999999999898 Q34.25 -1.1049999999999898 34.25 -1.1049999999999898 H85.75 Q85.75 -1.1049999999999898 85.75 -1.1049999999999898 Q85.75 -1.1049999999999898 85.75 -1.1049999999999898 V-64.47999999999999 Z M43.75 -10.35499999999999 H55.375 V-55.35499999999999 H43.75 V-10.35499999999999 Z M64.625 -10.35499999999999 H76.25 V-55.35499999999999 H64.625 V-10.35499999999999 Z M34.25 -64.47999999999999 V-1.1049999999999898 Q34.25 -1.1049999999999898 34.25 -1.1049999999999898 Q34.25 -1.1049999999999898 34.25 -1.1049999999999898 Q34.25 -1.1049999999999898 34.25 -1.1049999999999898 Q34.25 -1.1049999999999898 34.25 -1.1049999999999898 V-64.47999999999999 Z"/></g><g id="Medium-M" transform="matrix(1 0 0 1 1689.91 1126)"><path d="M34.625 10.77000000000001 Q30.0 10.77000000000001 26.625 7.460000000000008 Q23.25 4.14500000000001 23.25 -0.6049999999999898 V-64.85499999999999 H17.625 V-76.22999999999999 H44.25 V-81.97999999999999 H75.625 V-76.22999999999999 H102.375 V-64.85499999999999 H96.75 V-0.6049999999999898 Q96.75 4.14500000000001 93.375 7.460000000000008 Q90.0 10.77000000000001 85.375 10.77000000000001 H34.625 Z M85.375 -64.85499999999999 H34.625 V-0.6049999999999898 Q34.625 -0.6049999999999898 34.625 -0.6049999999999898 Q34.625 -0.6049999999999898 34.625 -0.6049999999999898 H85.375 Q85.375 -0.6049999999999898 85.375 -0.6049999999999898 Q85.375 -0.6049999999999898 85.375 -0.6049999999999898 V-64.85499999999999 Z M44.5 -10.22999999999999 H55.125 V-55.22999999999999 H44.5 V-10.22999999999999 Z M64.875 -10.22999999999999 H75.5 V-55.22999999999999 H64.875 V-10.22999999999999 Z M34.625 -64.85499999999999 V-0.6049999999999898 Q34.625 -0.6049999999999898 34.625 -0.6049999999999898 Q34.625 -0.6049999999999898 34.625 -0.6049999999999898 Q34.625 -0.6049999999999898 34.625 -0.6049999999999898 Q34.625 -0.6049999999999898 34.625 -0.6049999999999898 V-64.85499999999999 Z"/></g><g id="Regular-M" transform="matrix(1 0 0 1 1394.06 1126)"><path d="M35.0 9.77000000000001 Q30.875 9.77000000000001 27.94 6.835000000000008 Q25.0 3.8950000000000102 25.0 -0.22999999999998977 V-65.22999999999999 H20.0 V-75.22999999999999 H45.0 V-80.22999999999999 H75.0 V-75.22999999999999 H100.0 V-65.22999999999999 H95.0 V-0.22999999999998977 Q95.0 3.8950000000000102 92.065 6.835000000000008 Q89.125 9.77000000000001 85.0 9.77000000000001 H35.0 Z M85.0 -65.22999999999999 H35.0 V-0.22999999999998977 Q35.0 -0.22999999999998977 35.0 -0.22999999999998977 Q35.0 -0.22999999999998977 35.0 -0.22999999999998977 H85.0 Q85.0 -0.22999999999998977 85.0 -0.22999999999998977 Q85.0 -0.22999999999998977 85.0 -0.22999999999998977 V-65.22999999999999 Z M45.0 -10.22999999999999 H55.0 V-55.22999999999999 H45.0 V-10.22999999999999 Z M65.0 -10.22999999999999 H75.0 V-55.22999999999999 H65.0 V-10.22999999999999 Z M35.0 -65.22999999999999 V-0.22999999999998977 Q35.0 -0.22999999999998977 35.0 -0.22999999999998977 Q35.0 -0.22999999999998977 35.0 -0.22999999999998977 Q35.0 -0.22999999999998977 35.0 -0.22999999999998977 Q35.0 -0.22999999999998977 35.0 -0.22999999999998977 V-65.22999999999999 Z"/></g><g id="Light-M" transform="matrix(1 0 0 1 1098.18 1126)"><path d="M36.5 7.27000000000001 Q32.75 7.27000000000001 30.125 4.64500000000001 Q27.5 2.0200000000000102 27.5 -1.7299999999999898 V-65.22999999999999 H22.5 V-72.72999999999999 H45.0 V-77.10499999999999 H75.0 V-72.72999999999999 H97.5 V-65.22999999999999 H92.5 V-1.7299999999999898 Q92.5 2.0200000000000102 89.875 4.64500000000001 Q87.25 7.27000000000001 83.5 7.27000000000001 H36.5 Z M85.0 -65.22999999999999 H35.0 V-1.7299999999999898 Q35.0 -1.2299999999999898 35.5 -0.7299999999999898 Q36.0 -0.22999999999998977 36.5 -0.22999999999998977 H83.5 Q84.0 -0.22999999999998977 84.5 -0.7299999999999898 Q85.0 -1.2299999999999898 85.0 -1.7299999999999898 V-65.22999999999999 Z M47.0 -10.22999999999999 H54.5 V-55.22999999999999 H47.0 V-10.22999999999999 Z M65.5 -10.22999999999999 H73.0 V-55.22999999999999 H65.5 V-10.22999999999999 Z M35.0 -65.22999999999999 V-1.7299999999999898 Q35.0 -1.1049999999999898 35.0 -0.664999999999992 Q35.0 -0.22999999999998977 35.0 -0.22999999999998977 Q35.0 -0.22999999999998977 35.0 -0.664999999999992 Q35.0 -1.1049999999999898 35.0 -1.7299999999999898 V-65.22999999999999 Z"/></g><g id="Thin-M" transform="matrix(1 0 0 1 802.565 1126)"><path d="M38.125 4.77000000000001 Q34.625 4.77000000000001 32.315 2.460000000000008 Q30.0 0.14500000000001023 30.0 -3.3549999999999898 V-65.22999999999999 H25.0 V-70.22999999999999 H45.0 V-74.10499999999999 H75.0 V-70.22999999999999 H95.0 V-65.22999999999999 H90.0 V-3.3549999999999898 Q90.0 0.14500000000001023 87.69 2.460000000000008 Q85.375 4.77000000000001 81.875 4.77000000000001 H38.125 Z M85.0 -65.22999999999999 H35.0 V-3.3549999999999898 Q35.0 -2.1049999999999898 35.94 -1.1699999999999875 Q36.875 -0.22999999999998977 38.125 -0.22999999999998977 H81.875 Q83.125 -0.22999999999998977 84.06 -1.1699999999999875 Q85.0 -2.1049999999999898 85.0 -3.3549999999999898 V-65.22999999999999 Z M49.0 -10.22999999999999 H54.0 V-55.22999999999999 H49.0 V-10.22999999999999 Z M66.0 -10.22999999999999 H71.0 V-55.22999999999999 H66.0 V-10.22999999999999 Z M35.0 -65.22999999999999 V-3.3549999999999898 Q35.0 -1.9799999999999898 35.0 -1.1049999999999898 Q35.0 -0.22999999999998977 35.0 -0.22999999999998977 Q35.0 -0.22999999999998977 35.0 -1.1049999999999898 Q35.0 -1.9799999999999898 35.0 -3.3549999999999898 V-65.22999999999999 Z"/></g><g id="Ultralight-M" transform="matrix(1 0 0 1 506.415 1126)"><path d="M39.0 3.2700000000000102 Q35.75 3.2700000000000102 33.625 1.1450000000000102 Q31.5 -0.9799999999999898 31.5 -4.22999999999999 V-65.22999999999999 H26.5 V-68.72999999999999 H45.0 V-72.22999999999999 H75.0 V-68.72999999999999 H93.5 V-65.22999999999999 H88.5 V-4.22999999999999 Q88.5 -0.9799999999999898 86.375 1.1450000000000102 Q84.25 3.2700000000000102 81.0 3.2700000000000102 H39.0 Z M85.0 -65.22999999999999 H35.0 V-4.22999999999999 Q35.0 -2.7299999999999898 36.25 -1.4799999999999898 Q37.5 -0.22999999999998977 39.0 -0.22999999999998977 H81.0 Q82.5 -0.22999999999998977 83.75 -1.4799999999999898 Q85.0 -2.7299999999999898 85.0 -4.22999999999999 V-65.22999999999999 Z M50.25 -10.22999999999999 H53.75 V-55.22999999999999 H50.25 V-10.22999999999999 Z M66.25 -10.22999999999999 H69.75 V-55.22999999999999 H66.25 V-10.22999999999999 Z M35.0 -65.22999999999999 V-4.22999999999999 Q35.0 -2.4799999999999898 35.0 -1.3549999999999898 Q35.0 -0.22999999999998977 35.0 -0.22999999999998977 Q35.0 -0.22999999999998977 35.0 -1.3549999999999898 Q35.0 -2.4799999999999898 35.0 -4.22999999999999 V-65.22999999999999 Z"/></g><g id="Bold-S" transform="matrix(1 0 0 1 2294.23 696)"><path d="M26.827578 3.6266719999999992 Q21.402414 3.6266719999999992 17.70516 -0.0705820000000017 Q14.003172000000001 -3.7678359999999884 14.003172000000001 -9.192999999999998 V-57.22416399999999 H7.891578 V-70.043836 H33.431508 V-76.453672 H61.04966400000001 V-70.043836 H86.788422 V-57.22416399999999 H80.577414 V-9.192999999999998 Q80.577414 -3.7678359999999884 76.88015999999999 -0.0705820000000017 Q73.178172 3.6266719999999992 67.753008 3.6266719999999992 H26.827578 Z M67.753008 -57.22416399999999 H26.827578 V-9.192999999999998 Q26.827578 -9.192999999999998 26.827578 -9.192999999999998 Q26.827578 -9.192999999999998 26.827578 -9.192999999999998 H67.753008 Q67.753008 -9.192999999999998 67.753008 -9.192999999999998 Q67.753008 -9.192999999999998 67.753008 -9.192999999999998 V-57.22416399999999 Z M33.530922000000004 -16.393413999999993 H44.083008 V-50.123163999999996 H33.530922000000004 V-16.393413999999993 Z M50.497578 -16.393413999999993 H61.04966400000001 V-50.123163999999996 H50.497578 V-16.393413999999993 Z M26.827578 -57.22416399999999 V-9.192999999999998 Q26.827578 -9.192999999999998 26.827578 -9.192999999999998 Q26.827578 -9.192999999999998 26.827578 -9.192999999999998 Q26.827578 -9.192999999999998 26.827578 -9.192999999999998 Q26.827578 -9.192999999999998 26.827578 -9.192999999999998 V-57.22416399999999 Z"/></g><g id="Semibold-S" transform="matrix(1 0 0 1 1998.1 696)"><path d="M27.319914 2.1496640000000156 Q22.780008000000002 2.1496640000000156 19.627164 -1.0079139999999995 Q16.469586 -4.165491999999986 16.469586 -8.700664000000003 V-57.716499999999996 H11.342664 V-68.56682799999999 H34.420913999999996 V-73.991992 H60.159672 V-68.56682799999999 H83.337336 V-57.716499999999996 H78.111 V-8.700664000000003 Q78.111 -4.165491999999986 74.953422 -1.0079139999999995 Q71.800578 2.1496640000000156 67.260672 2.1496640000000156 H27.319914 Z M67.260672 -57.716499999999996 H27.319914 V-8.700664000000003 Q27.319914 -8.700664000000003 27.319914 -8.700664000000003 Q27.319914 -8.700664000000003 27.319914 -8.700664000000003 H67.260672 Q67.260672 -8.700664000000003 67.260672 -8.700664000000003 Q67.260672 -8.700664000000003 67.260672 -8.700664000000003 V-57.716499999999996 Z M34.3215 -16.393413999999993 H43.88891400000001 V-50.123163999999996 H34.3215 V-16.393413999999993 Z M50.691672000000004 -16.393413999999993 H60.259085999999996 V-50.123163999999996 H50.691672000000004 V-16.393413999999993 Z M27.319914 -57.716499999999996 V-8.700664000000003 Q27.319914 -8.700664000000003 27.319914 -8.700664000000003 Q27.319914 -8.700664000000003 27.319914 -8.700664000000003 Q27.319914 -8.700664000000003 27.319914 -8.700664000000003 Q27.319914 -8.700664000000003 27.319914 -8.700664000000003 V-57.716499999999996 Z"/></g><g id="Medium-S" transform="matrix(1 0 0 1 1701.85 696)"><path d="M27.613422 1.0655780000000163 Q23.769414 1.0655780000000163 21.009491999999998 -1.6470039999999813 Q18.244836 -4.359585999999993 18.244836 -8.303007999999991 V-58.010008 H13.908492 V-67.38332799999999 H35.112078 V-72.11732799999999 H59.468508 V-67.38332799999999 H80.77150800000001 V-58.010008 H76.33575 V-8.303007999999991 Q76.33575 -4.359585999999993 73.575828 -1.6470039999999813 Q70.811172 1.0655780000000163 66.967164 1.0655780000000163 H27.613422 Z M66.967164 -58.010008 H27.613422 V-8.303007999999991 Q27.613422 -8.303007999999991 27.613422 -8.303007999999991 Q27.613422 -8.303007999999991 27.613422 -8.303007999999991 H66.967164 Q66.967164 -8.303007999999991 66.967164 -8.303007999999991 Q66.967164 -8.303007999999991 66.967164 -8.303007999999991 V-58.010008 Z M34.91325 -16.293999999999997 H43.690085999999994 V-50.02374999999999 H34.91325 V-16.293999999999997 Z M50.8905 -16.293999999999997 H59.667336 V-50.02374999999999 H50.8905 V-16.293999999999997 Z M27.613422 -58.010008 V-8.303007999999991 Q27.613422 -8.303007999999991 27.613422 -8.303007999999991 Q27.613422 -8.303007999999991 27.613422 -8.303007999999991 Q27.613422 -8.303007999999991 27.613422 -8.303007999999991 Q27.613422 -8.303007999999991 27.613422 -8.303007999999991 V-58.010008 Z"/></g><g id="Regular-S" transform="matrix(1 0 0 1 1405.73 696)"><path d="M27.911664 0.2750000000000057 Q24.460577999999998 0.2750000000000057 22.041504 -2.1393400000000042 Q19.627164 -4.558413999999999 19.627164 -8.009499999999989 V-58.308249999999994 H15.778422 V-66.59275 H35.703828 V-70.73499999999999 H58.976172 V-66.59275 H78.901578 V-58.308249999999994 H74.953422 V-8.009499999999989 Q74.953422 -4.558413999999999 72.53908200000001 -2.1393400000000042 Q70.120008 0.2750000000000057 66.668922 0.2750000000000057 H27.911664 Z M66.668922 -58.308249999999994 H27.911664 V-8.009499999999989 Q27.911664 -8.009499999999989 27.911664 -8.009499999999989 Q27.911664 -8.009499999999989 27.911664 -8.009499999999989 H66.668922 Q66.668922 -8.009499999999989 66.668922 -8.009499999999989 Q66.668922 -8.009499999999989 66.668922 -8.009499999999989 V-58.308249999999994 Z M35.306172000000004 -16.293999999999997 H43.590672 V-50.02374999999999 H35.306172000000004 V-16.293999999999997 Z M50.989914000000006 -16.293999999999997 H59.274414 V-50.02374999999999 H50.989914000000006 V-16.293999999999997 Z M27.911664 -58.308249999999994 V-8.009499999999989 Q27.911664 -8.009499999999989 27.911664 -8.009499999999989 Q27.911664 -8.009499999999989 27.911664 -8.009499999999989 Q27.911664 -8.009499999999989 27.911664 -8.009499999999989 Q27.911664 -8.009499999999989 27.911664 -8.009499999999989 V-58.308249999999994 Z"/></g><g id="Light-S" transform="matrix(1 0 0 1 1109.75 696)"><path d="M29.095164 -1.699078 Q25.937586 -1.699078 23.769414 -3.8672499999999985 Q21.596508 -6.035421999999983 21.596508 -9.192999999999998 V-58.308249999999994 H17.7525 V-64.61867199999999 H35.703828 V-68.268586 H58.976172 V-64.61867199999999 H76.9275 V-58.308249999999994 H72.984078 V-9.192999999999998 Q72.984078 -6.035421999999983 70.811172 -3.8672499999999985 Q68.643 -1.699078 65.485422 -1.699078 H29.095164 Z M66.668922 -58.308249999999994 H27.911664 V-9.192999999999998 Q27.911664 -8.800078 28.304586 -8.402421999999987 Q28.697508000000003 -8.009499999999989 29.095164 -8.009499999999989 H65.485422 Q65.883078 -8.009499999999989 66.276 -8.402421999999987 Q66.668922 -8.800078 66.668922 -9.192999999999998 V-58.308249999999994 Z M36.887328 -16.293999999999997 H43.19775 V-50.02374999999999 H36.887328 V-16.293999999999997 Z M51.382836 -16.293999999999997 H57.697992 V-50.02374999999999 H51.382836 V-16.293999999999997 Z M27.911664 -58.308249999999994 V-9.192999999999998 Q27.911664 -8.700664000000003 27.911664 -8.355081999999996 Q27.911664 -8.009499999999989 27.911664 -8.009499999999989 Q27.911664 -8.009499999999989 27.911664 -8.355081999999996 Q27.911664 -8.700664000000003 27.911664 -9.192999999999998 V-58.308249999999994 Z"/></g><g id="Thin-S" transform="matrix(1 0 0 1 814.015 696)"><path d="M30.378078 -3.6684219999999925 Q27.419328 -3.6684219999999925 25.49259 -5.595159999999993 Q23.570586 -7.517163999999994 23.570586 -10.475914000000003 V-58.308249999999994 H19.726578 V-62.649328 H35.703828 V-65.901586 H58.976172 V-62.649328 H74.953422 V-58.308249999999994 H71.01 V-10.475914000000003 Q71.01 -7.517163999999994 69.087996 -5.595159999999993 Q67.165992 -3.6684219999999925 64.202508 -3.6684219999999925 H30.378078 Z M66.668922 -58.308249999999994 H27.911664 V-10.475914000000003 Q27.911664 -9.486507999999986 28.650167999999997 -8.748003999999995 Q29.388672 -8.009499999999989 30.378078 -8.009499999999989 H64.202508 Q65.191914 -8.009499999999989 65.930418 -8.748003999999995 Q66.668922 -9.486507999999986 66.668922 -10.475914000000003 V-58.308249999999994 Z M38.46375 -16.293999999999997 H42.804828 V-50.02374999999999 H38.46375 V-16.293999999999997 Z M51.780492 -16.293999999999997 H56.116836 V-50.02374999999999 H51.780492 V-16.293999999999997 Z M27.911664 -58.308249999999994 V-10.475914000000003 Q27.911664 -9.39182799999999 27.911664 -8.700664000000003 Q27.911664 -8.009499999999989 27.911664 -8.009499999999989 Q27.911664 -8.009499999999989 27.911664 -8.700664000000003 Q27.911664 -9.39182799999999 27.911664 -10.475914000000003 V-58.308249999999994 Z"/></g><g id="Ultralight-S" transform="matrix(1 0 0 1 517.792 696)"><path d="M31.064508 -4.851921999999988 Q28.304586 -4.851921999999988 26.529336 -6.627171999999987 Q24.754086 -8.402421999999987 24.754086 -11.16707799999999 V-58.308249999999994 H20.910078 V-61.46582799999999 H35.703828 V-64.424578 H58.976172 V-61.46582799999999 H73.769922 V-58.308249999999994 H69.8265 V-11.16707799999999 Q69.8265 -8.402421999999987 68.05125 -6.627171999999987 Q66.276 -4.851921999999988 63.516078 -4.851921999999988 H31.064508 Z M66.668922 -58.308249999999994 H27.911664 V-11.16707799999999 Q27.911664 -9.983577999999994 28.896336 -8.994171999999992 Q29.881008 -8.009499999999989 31.064508 -8.009499999999989 H63.516078 Q64.699578 -8.009499999999989 65.68425 -8.994171999999992 Q66.668922 -9.983577999999994 66.668922 -11.16707799999999 V-58.308249999999994 Z M39.448422 -16.293999999999997 H42.606 V-50.02374999999999 H39.448422 V-16.293999999999997 Z M51.974585999999995 -16.293999999999997 H55.132164 V-50.02374999999999 H51.974585999999995 V-16.293999999999997 Z M27.911664 -58.308249999999994 V-11.16707799999999 Q27.911664 -9.784749999999988 27.911664 -8.899491999999995 Q27.911664 -8.009499999999989 27.911664 -8.009499999999989 Q27.911664 -8.009499999999989 27.911664 -8.899491999999995 Q27.911664 -9.784749999999988 27.911664 -11.16707799999999 V-58.308249999999994 Z"/></g></g></svg>